%!PS-Adobe-3.0 EPSF-3.0
%%Creator: GIMP PostScript file plugin V 1,17 by Peter Kirchgessner
%%Title: ski.eps
%%CreationDate: Mon Mar  3 10:37:25 2014
%%DocumentData: Clean7Bit
%%LanguageLevel: 2
%%Pages: 1
%%BoundingBox: 14 14 191 170
%%EndComments
%%BeginProlog
% Use own dictionary to avoid conflicts
10 dict begin
%%EndProlog
%%Page: 1 1
% Translate for offset
14.173228346456694 14.173228346456694 translate
% Translate to begin of first scanline
0 155.19999999999999 translate
175.99999999999997 -155.19999999999999 scale
% Image geometry
220 194 8
% Transformation matrix
[ 220 0 0 194 0 0 ]
% Strings to hold RGB-samples per scanline
/rstr 220 string def
/gstr 220 string def
/bstr 220 string def
{currentfile /ASCII85Decode filter /RunLengthDecode filter rstr readstring pop}
{currentfile /ASCII85Decode filter /RunLengthDecode filter gstr readstring pop}
{currentfile /ASCII85Decode filter /RunLengthDecode filter bstr readstring pop}
true 3
%%BeginData:        17784 ASCII Bytes
colorimage
JcGcM#l_kuEIF4ag%hlPJ,~>
JcGcM#l`MZTrGZNjnl:^J,~>
JcG`L#OL$geD9<YrNQ<P~>
Jc>fOrh0+"")*Fio!A@H~>
Jc>fOrkSAu".QI6pTsmM~>
JcGcM!8mXs"3oHXqm6<Q~>
JcGcM!S_GcAc[##[/YX~>
JcGcM!U$$KR/s&?[/YX~>
JcGcM!V=V3bQ6,[[/YX~>
Jc>fO^hECQ!L`Sgs*t~>
Jc>fOeXQ6"!PA*7s*t~>
Jc>fOlHT"G!T!X]s*t~>
Jc>bgBCf^9HKr!>J,~>
Jc>`%nsKNUn[JOK~>
Jc>`9o#q-`pp^9R~>
K)YkuB^o[7Njo%=~>
K)Yl/RdldG[($'c~>
K)Yl?c10!Xfsh!3~>
KDtu6Dsq9<f!ta1~>
KDtu>TC80JjLG5?~>
KDtuGcgT'Xn[SUL~>
K`;)BGj]/DOgtFA~>
K`;)GV='`O[^c?f~>
K`;)LddG<Zg:705~>
L&V2KL$`IQCA>@>J,~>
L&V2NY3hVXS,9brJ,~>
L&V2Pf'UZ^c2G3QJ,~>
LAq;QOm?TZ`4>nu~>
LAq;Q[Hj4\f=Cp3~>
LAq;Rg?Zr_lad%G~>
M>m\TY.0qcAc[M_])R9~>
M>m\Uaj7TaR/j>!s*t~>
M>m\WjQG@abQ-2(s*t~>
M>mRck%4V@])R9~>
M>mS&k*Z5-])R9~>
M>mS=k0*hp])R9~>
MZ3_SFQR08Qb*3I~>
MZ3_UU?7jD]"7ol~>
MZ3_VdH8XQgq*N9~>
N;itYhTP"m!.;BXJ,~>
MuNhBguXq(Vn2nY~>
MuNhMmcDXme%5R0~>
N;issAoHdC!.)6VJ,~>
N;it2R@iT/!2d@-J,~>
N;itFbg5Cp!7SOZJ,~>
NW0%METC^4BX55LJ,~>
NW0%QT]DLAR`rACJ,~>
NW0%Vd,`COc/lP:J,~>
O8f:P^OtQY!5,lBJ,~>
O8f:TeZ@f!!7SLYJ,~>
O8f:YlIP">!9q&oJ,~>
P5bXW`K4clAcZ`-])R9~>
P5bX[fX71,R/rlE])R9~>
P5bX^m+T_CbQ6#^])R9~>
QN%*em)kT.h.?YP])R9~>
Q2^sWgUNd0R/je/s*t~>
Q2^s^mG,tBbQ-G0s*t~>
SGrfll-Qo2Kl,LT!7ACXJ,~>
SGrfmn__[,Xe".5!8tHgJ,~>
SGrfmq![D'f$;sm!:[T"J,~>
TDo#URY#;(AcSpCs*t~>
TDo#^]W@XQR/k:<s*t~>
TDo#fh:9d"bQ-\6s*t~>
T`5&`HI?C+P5VrkJ,~>
T`5&dVp^t6\,Nr<J,~>
T`5&ie'cG@g]"b`J,~>
U&P/gK[OH5LAJF[J,~>
U&P/jXjWU<YPYj0J,~>
U&P/lf$_bCfDW5ZJ,~>
UAk8mPL=%DGOW*AJ,~>
UAk8n\'gZFV=h=tJ,~>
UAk8ngX=:Hde^HQJ,~>
UAk4tdUiMqhmWQ8~>
UAk59d[:-,lF-_C~>
UAk5Td`_a;oX=dM~>
U]1>/dUiMmcaEe'~>
U]1>Ed[:-)hmNK7~>
U]1>ZdEDUZ[Jta~>
V#LJQC=6\oYI+=[~>
V#LJ[S'm])b-_2!~>
V#LJfc-jf9jL"r;~>
V>gSkIFVp4Q'#[Drj;]U~>
V>gSnW7@:=\@.g8rj;]U~>
V>gSpeCDbFgtL!-Zi>O~>
V>gOlen,)3e,TI*pTsmM~>
V>gP5esQ]=iW&rBqQp3P~>
V>gPSf$"<HnGiO\r3QER~>
VZ-\GB@g_rS+s/dJ,~>
VZ-YTesQQOqQBjK~>
VZ-Ycf$"0OrN?0N~>
VuHehFk1.)TWS6E~>
VuHelUXkh5^TINd~>
VuHepdFQMAhlZp/~>
W;cnPJCJ02c*%(s~>
W;cn]X43O;h6-d.~>
W;cnie^VeCm]QS?~>
WrE+ePgX.ECYl8pJ,~>
WrE+k\'gZFSE[6WJ,~>
WrE+qgX=:HcLe=?J,~>
X8`4EE6r1tGO_p;J,~>
X8`4VT[9)-V=h(mJ,~>
X8`4gcd9l:de^3JJ,~>
X8`0Oc=R*0pp'jL~>
X8`1$cC"^8qm$0O~>
X8`1McHH=?rNZBQ~>
XT&=lB?b#hQi=;jJ,~>
XT&:pbaALCrj)QS~>
XT&:tbfg(BZ2]=~>
XT&:Fb@UaeZN#F~>
XT&:WbF&@YZN#F~>
XT&:gbKKtNZN#F~>
XT&:%b@Ua@ZN#F~>
XT&:@bF&@AZN#F~>
XT&:\bKKtAZN#F~>
XT&:%b@Ua2ZN#F~>
XT&:@bF&@7ZN#F~>
XT&:\bKKt=ZN#F~>
XT&:*b@Ua#ZN#F~>
XT&:DbF&@.ZN#F~>
XT&:^bKKt8ZN#F~>
XT&:/b@Ucid^/t(~>
XT&:HbF&C$iNrQ7~>
XT&:`bKL"3n?`.F~>
XT&:5b%:ZeZF'X^~>
XT&:KadE.Q[/YX~>
XT&:baijbH[/YX~>
XT&:4a^tO/[/YX~>
XT&:KadE.5[/YX~>
XT&:aaijb:[/YX~>
XT&:)a^tO/[/YX~>
XT&:DadE.5[/YX~>
XT&:^aijb:[/YX~>
XT&9sa^tO/[/YX~>
XT&:<adE.5[/YX~>
XT&:Zaijb:[/YX~>
XT&9ha^tO.[/YX~>
XT&:5adE.4[/YX~>
XT&:Vaijb:[/YX~>
XT&9]a^tZkioSMTk5PVR\AHMBj4XH_~>
XT&:.adE:%m-W^&k5PVXcdpq5mFhMi~>
XT&:Saijn5p%IkNk5PV]kNhR,p=]Ir~>
XT&9R`+B%)aQ`^*n9t7I!G_Ses*t~>
XT&:&`0gY/g?JV<or7nX!Ls)Bs*t~>
XT&:O`6886mHOWOqUGJf!R:Vts*t~>
XT&9H_e&mrlMgnOH2D1Rm+VJi~>
XT&9t_jLM&lMgnUV>HY\o@j4p~>
XT&:L_or,0lMgn\deh5gq:bk!~>
XT&9?_e'%7s81jFn,EFXIemXVg"QIV~>
XT&9o_jLY9s8D<Vn,EF]WVW"_k1]ic~>
XT&:I_or8<s8M`gn,EFbeG@Aho%O+o~>
XT&96_e':R[VTPng&M*7\]OdDrrMY=q.9WGgAc[~>
XT&9i_jLnMc^gJqk5YJLd+eNnrrMelq3_69gAc[~>
XT&:F_orMIkK_;to)JaakjABDrrMuGq9/j*gAc[~>
XoACr_I`d^rFQ:R_k^sXAq]LGrrMP;pgsN1gAc[~>
XoACu_O1CnrL!n_f><uERB?#TrrMbkpmD-)gAc[~>
XoAD"_TW#)rQGMmlf$+4bguRbrrMrFpria"gAc[~>
XoACo[UoV\c11f3rrLAapLXDcgAc[~>
XoACr[[@5ih=^dGrrLrKpR)#fgAc[~>
XoAD![`eg!meZk]!Ue>/bQ->Ms*t~>
XoAClZXs>QFFfO7ok"5ArS.@&~>
XoACqZ^CrbUT:f0opGiOrnII'~>
XoACuZHNEue_8aMbQ6#gg])d~>
XoAG#Bqf2>jkKfc~>
XoAG#S"c;NmG%Yk~>
XoAG$c(`D^p=oUt~>
XT&9GU1ODHg])d~>
XT&9tU6u#8g])d~>
XT&:KU<EW)g])d~>
XT&9\U1OD8g])d~>
XT&:,U6u#-g])d~>
XT&:RU<EW#g])d~>
XT&9oU1OD8g])d~>
XT&:9U6u#.g])d~>
XT&:YU<EW#g])d~>
XT&:.U1ODQg])d~>
XT&:FU6u#?g])d~>
XT&:_U<EW,g])d~>
Y5\RnZZMsS!IORqs*t~>
Y5\Rsc(h&%!N5eKs*t~>
Y5\S"k0]sJ!Rpu$s*t~>
Z2Xq*g7E&TAcmI[e,7r"J,~>
Yl=de^RV*f"0'8urS%:%~>
Yl=drhp%t@"4Z?"rn@C&~>
Zi:*mZ[/K\"H/pbB#W@$J,~>
Zi:*tbbq>+"L>h2RG$0kJ,~>
Zi:+%k0p3O"PDVUbj<p\J,~>
[f6I(`JeHOAcQN&Ad<I,B&2?VB%ki9J,~>
[f6F*fWrSd!1Vo7#G\8dl04V(kLTZ`~>
[f6F,m+KJ(!6sHG#LV&Fo^pAOo@Eql~>
\c2d1et-aTAcd%LT@%6Q\F-J;j(8RKmJ>#^l"4PZf)L7~>
\c2d2jM%2]R0',#^X8GOch,;Nj-^1RoDIG.n<o^+f)L7~>
\c2d2n__XgbQ?/MhpKXMkP=2bj3.eZq>KaRprptQf)L7~>
]DhrmX*4>O"a$TmrVs4QAcZPWrr3#ZBBj(5JSo(3Eh<%(rr_V"B%>K4J,~>
]Dhs!a.rL!"erorrr:6kR/k_8rrDEMR0K^`R@0b_qYgErnsPp+f)L7~>
]Dhs+j3d_I"ju<"rr;-/bQ-o,rrDcWbQcVDbfnGkr;HWtq97(Qf)L7~>
^Ae9&\:FEf"*CEmrVc`rX41_^B>ONG!1!7i%qg'BSZfoZ_3o.PH1LLJl2(D^l=OYVf)L7~>
^Ae9+c`?o1"/Ecqrr)isa4-LXRaq?9!4_`j&"9<!]unsdf"7NAV=sT:nG<.enX5g(f)L7~>
^Ae91kLKFQ"4?)urr)isj3u3PlMUY^h"Al$dFd=:lgX2qcHO`6qX+(Srr`&?bja3`J,~>
_>aW1`/J@+Acm.Pg&:dI!2A"U!GKILrrD<Z_?7d/l21;V!r0_(pAY6ZAnKE@s*t~>
_>aW5f<^qCR005&jo5,V!5[3R!Lh[<rrDTbecXUdnbr:`!rLXCpAY6aR@2s`s*t~>
_>aT7le2-Y"4?)urqcWpi76$Pc0Y?-!;QBU"75URrqZQqrTj=Rrr`&?bjX-_J,~>
`;]r7a,ap2Acd@cjnA]SR+>jMC=1Z5"6X9.c.;oF~>
`;]r9fsI4FR0'>2me6Y\]@NANSDi*""7MYGh:DUV~>
`;]r<m+T_]bQ?8Tp@eLdh:BdNc1'?b"8C$`mahDg~>
a8Z8@gn\reAcm4SgA^aE!0GfE!G]m1rr_@pB$/^)J,~>
`r?,'_k?mp"/Eitrq-3j[F^fIS)2`r"7DSFgt)LU~>
`r?,3iR%JG!n$$!oD\gEf?=9?mahC?p<:bJf)L7~>
ao;FsW-8&M!e%B9nG`K3fOb/$g"$*)jCW#Ef)L7~>
ao;G*`M<<u!iX?2nG`K`fU2c3jjjA5m?sBrf)L7~>
ao;G6imIYI!n??*nG`L9fZXBAo%!aBp<:bIf)L7~>
bl7b1Z@Da`!e%B9mf*:QfOb/%g=6-)iaufAf)L7~>
bl7b7bc:Q.!iaE3mf*:XfU2c3kLBM6m$X9of)L7~>
bl7b>jja1O!n??*mf*:^fZXBBo@3dBoutYHf)L7~>
ci4+=]SU;!AcdCdjm2pHa4Y&*DqrhA"6!j(_Uea;~>
ci4+Ae$5A>R0'A3md'lQg=_kpTBF]'"7)ACf%0kO~>
ci4(Dl.GmW!n??*li-tOfusKCo@*^AoutYGf)L7~>
df0FHb`ll?AcdFejll^EUtTD]ET,@G"5d^&^XiF8~>
df0FJh7&pPR0'A3mcaZN_V1CYU$L/,"6u;Be^jbN~>
df0FKmb?"abQ?;Up?;MViS)KVd.Pie"8'g]lIPuc~>
ec,aNgo#8lAcm:Xh>ZR:!.rp:!6<Le"5RR$^"346~>
eGfU6`M<@!!i<p#jo5=]g6hrpdJj=5R@2OTs*t~>
eGfUAimI\J!n--$jo5>2g<9Q`dJj=@bfo>&s*t~>
f`)'QgS8cdAcdIfjl?@AoOlli!2\*C"5IL#]%6n3~>
fDbp8_P-mq!iaE3j8T,SfpMiXdJj=4R@2IRs*t~>
fDbpDi6_DG!n??*j8T,VfusHTdJj=?bfo;%s*t~>
gA_6/W-A/O!e7N;i;Wf*fk(8*rR1]Jg1Fs,f)L7~>
gA_6;`MNL#!iaE3i;Wf9fpMl7rR1]JkF%aaf)L7~>
gA_6GimRbK!n??*i;WfHfusKDrmLfKo?>GAf)L7~>
h>[QC\:a]k"*q!*rndYTWRte_f@'[$fk+j(f)L7~>
h>[QJd&m56!iF$&h>[JofU2a#df0F2R@2@Os*t~>
h>[QPkLTRT!n--$h>[K7fZX?ddf0F?bfo5#s*t~>
i;WlDZ@Dda!e7N;g]%<QF4b()U!irCf4JX#f)L7~>
i;WlKbc:T/!ijK4g]%<QU"Gb5^s`5bjdDO\f)L7~>
i;WlRjja4P!n??*g]%<Rd+HPBi6qW-o$#>>f)L7~>
j8T2M]S68q!e7N;f`(s$f4G&&qpYQIen/Nuf)L7~>
j8T2Re#iP9!ijK4f`(s3f9lZ3r6tZJj-c=Xf)L7~>
j8T2Wl.5dV!n??*f`(sAf?=9ArmUlLn]]5=f)L7~>
k5PPYacpQ=Acd=]i77i-U"3fUb1$@me7N<pf)L7~>
k5PP[gUNaOR0';.ldc"8^t+nRgsc9*igH4Uf)L7~>
k5PP^mG#nabQ?8Sp!s'Bi7?*PmF2(;n]]5<f)L7~>
l2Lk^cC/SJAcd@_iR@f-qJb"t!I=Okrr^b_AuaG^J,~>
l2Lk`hn,HXR0';.ldPk7r1DQ.!N#\Crr_8KRE*nYJ,~>
l2Lkan(l:fbQ?8Sp!`pArQj'=!Rgqrrr_f8bi@:SJ,~>
m/I1`a-:B<Acdh%ld5Y3bg^5)ZIJmVen/Nmf)L7~>
m/I1bfsdLMR0'YBo$IC:h:.hmbLHOojI)FTf)L7~>
m/I1dm+]habQ?G]psB$@maTG\jja;4n]]5:f)L7~>
n,ELgeY@0`Acd@`im%K'[+&[gD=5sS"5%3tV:PZs~>
n,ELgj2%GfR0'>0m*5P1c.&-^Sb1J4"6Gr=_q+j<~>
n,ELhn_hdmbQ?8Sp!*L:k1%TUcM?#j"7j[[iR\$Z~>
o)Agea-:E=Acdh%lcT5.lY"^Z!1MI<"57@!UXoHq~>
o)AggfsdONR0'YBo#gt5ns\'r!5-k^"6Z)?_:JX:~>
o)Agjm+]habQ?G]pr`U:ps[Feh:;N-o?>G:f)L7~>
qu6`IdJNqC"8gK<E;aAMIB_bOrr@u,AcZQ#f)Gj-AnI^es*t~>
qu6`WiVicU"8q,mT`(8[WQX\KrrB=QR/lI%rr_JQRD7>QJ,~>
qu6`fnG`Fe"9.fIci)&heE-DDrrC^#bQ.:drr_l:bhq"OJ,~>
qu6kdAp2VAQu;k7!e.E8_uB_Udq/W7rn%/Phe$Jkf)L7~>
qu6l2RA8`n\t8kg!iaB1_uB_ie!U6>rn%/Pl'[sRf)L7~>
qu6lUbgGqHh9Z&D!n??*_uB`'e'%gCf)GjEbfnqps*t~>
qu6YEqdoqCM7i2jrrMt8dq/TnfDbs3AnIL_s*t~>
qu6YpqO%Die+:BT!W/M<R/k^frr_STRCq,NJ,~>
qu6ZGqTK#nl1r-p!WC?nbQ-nZrr_r<bh^kMJ,~>
r;QfpB`;TGB8O:f]`.u-dq/Vun(@XBj(;njf)L7~>
r;QfqS,J`VZ.&<WrrBpbR/rrQf`)'?R@1Y;s*t~>
r;Qfsc2Giff]i4ErrD$,bQ6&df`)'Ibfnnos*t~>
rr3'!lbi^6!L2`WrrCj&AcSLVrr_@pAsLsIJ,~>
rVlogfD_0=\F-p-!9_du!5R7e"7DSF\CU\1~>
rVlonli,*/g\88Y!;"X_!8lH/"89s_gt)LU~>
"3dKpD>[uG]!q\>NRMJ?BAD2?"6X9.P1KY`~>
"5UesT)=uVdC9,UZdP6Akh5t<n!TTQf)L7~>
"7G+!cMYldkdUQlg!\(Eo@a-GpWUk9f)L7~>
$0#f6Dku7DG@n\#rrM\?dq/W4rS%8Rl"4Ohf)L7~>
$1".MT>KjUV4#oDrrMhme!U6<rS%8RnX5fQf)L7~>
$2)Tfcf+Nfd`h!crrN#He'%jCrn@ASprpt9f)L7~>
"96ijq>UBqoTdM+rrM\Cdq/TmgA_9@AnI%Rs*t~>
"97B7qu6TspUT"drrMkre!U3bgA_9GR@1D4s*t~>
"97lWrVlfuqqUSIrrN#Je'%gVgA_9Mbfnbks*t~>
q>UKpp9jo$pQX0>!H7M_rr_\$ArG7?J,~>
q#:?i[Jp:(\($fHTCpt="7qqKZ.Ar*~>
q#:?l[Jp:*gXOFJchcDr"8U0bf[g(Q~>
WrE/!Y]/-)!1hmE"7Ki6Lt;TV~>
WrE/"b+I4P!57.e"8/(MYL``(~>
WrE/"jj2K$!8cK1"8^6cf@KtP~>
W;ctuet-^0AcU<8rr_h(Aqeh9J,~>
W;cu!jM%2:R/l7%rr_t_RBG-@J,~>
W;cu!n__XDbQ..frr`/BbgtAFJ,~>
V>gYja,aleAc[;Vh>[TLAnHYGs*t~>
V>gVmfsKG#!N>qPrr`%aRB5!>J,~>
V>gVpm+U.:!Rq&(rr`/Bbgk;EJ,~>
UAk;^\9ltB!4L_`"86>=JCaaN~>
UAk;dc_oNc!7'F#"8S@QWn.3#~>
UAk;jkL820!9`2<"8pBee^jbN~>
T`5)lduN6r!H%8]rr`%.Apr81J,~>
T`5)mij@O0!M8r?rr`.dRAnd;J,~>
T`5)mnCcXA!RCMtrr`5Dbgb5DJ,~>
T)Sf-gh$PPhZ!]TAnHA?s*t~>
T)SfBgmJ/QhZ!]UR@0u(s*t~>
T)SfVgrocRhZ!]WbfnPes*t~>
T)Sf(gL^H5hu<fWAnH8<s*t~>
T)Sf>gR/'#hu<fWR@0o&s*t~>
T)SfTgWTZehu<fXbfnMds*t~>
T)Sf#gL^J5qV_AUraobbf)L7~>
T)Sf;gR/)?r87PSR/j#5s*t~>
T)SfRgWT]IrSRYTbQ-&As*t~>
T)Sesg1C>lhu<akAolQ'J,~>
T)Sf8g6hrchu<bHRA&43J,~>
T)SfQg<9QZhu<c&bg=r@J,~>
T)Seog1C@uc/AU'C1_G9s*t~>
T)Sf4g6hu1hVeD8S=-##s*t~>
T)SfOfusHai;Wl'bg4l?J,~>
T)Sf!fk(8!eD^E/Ch@P8s*t~>
T)Sf9fpMl1j5L">SXH)#s*t~>
T)SfRfusKAn_sKLcHOSbs*t~>
T)Sf-fOb/'jl6:AEFrt:s*t~>
T)SfAfU2c4mGe-ITp_G%s*t~>
T)SfVfZXBBp>Z)Rd*0bcs*t~>
T)Sf9mq)Q4l=L'@mc4<KHtI'Cs*t~>
T)SfJf9lZ8oAfiPW0s+*s*t~>
T)SfZf?=9Dq;_JVe'-(fs*t~>
T)SfGmq)TcHKo)CHh-7t",LQ$rn%1#~>
T)SfRn!O3eVWsQMVtT3O"0\,\rn%1#~>
T)Sf^n&tgfe*>-Xe,/5+!nYZ?f)L7~>
T)SfSmq)Trd-5-CLA9m1"-[>/qq(ju~>
T)Sf[n!O3ohs$O0Y578["1O\drR_("~>
T)Sfbn&tgkn*/$sfDXh2"5D&Drn%1#~>
T)Sf_mq)X's.JUg!L<WGrr\j)B)1'YJ,~>
T)Sfcn!O7!s1mle!P/0krr^!'RJYV9J,~>
T)Sffn&tjos53(b!Sm\:rr_0&bl-/nJ,~>
T)SijC%,^:\,ZK<l"0s^rTF1_WFfc9fDg@~>
Sc8\Zn<jC)s8UF0R/skskPkY(R@3m&s*t~>
Sc8]7nB;!ts8V9HbQ6MukPkYDbfp":s*t~>
Sc8\3n7D[9rr3#2BBj(/V!%a[Zt<qBfDg@~>
Sc8\bn<j:,rr2uHl'VOgkPkY/R@3g$s*t~>
Sc8];nB:mtrr2u^l-'.dkPkYHbfot9s*t~>
Sc8\@n7D[CrVloFC[,L3YNYug^Lh*JfDg@~>
Sc8\jn<j:2rVloUSa)UCalra,eX;iufDg@~>
Sc8]?nB:n"rVloecK`URjQQUGlHIKKfDg@~>
Sc8\Mn7D[Lr;QfJD<b^5aQ`^,b%>8RfDg@~>
Sc8\rn<j:9r;QfXT'D^Dg?JV>gmOT&fDg@~>
Sc8]CnB:n%r;QffcK`URmHOWQmEEfMfDg@~>
Sc8\Yn7D[Uqu6]YI-YAFDY35o"4h'rm+;8f~>
Sc8]%n<j:?qu6]aVsB`OT(hOM"65f;o%3nl~>
Sc8]GnB:n(qu6]je*G3Ychm#-"7aUZq:GXs~>
Sc8\fn7D[_qYpTkR-S>ak3DsKiaufefDg@~>
Sc8].n<j:EqYpTm]'Gaan*9oTl^=11fDg@~>
Sc8]LnB:n,qYpTph<W8bpZhb\outYTfDg@~>
Sc8\rn7D[hq>UNqY\3?8!9<AE"70W3k1BW`~>
Sc8]6n<j:Lq>UKpb3YMrm-=TQnsPp7fDg@~>
Sc8]PnB:n/q#:?Um*#J'lMgt^bfoh5s*t~>
Sc8])nR_f7q=jmic=u]Y!9WSH"8?D>j4F<]~>
Sc8]?nX0EHqtL*khOEr$!:T4Q"8\FRmFVAg~>
Sc8]TnB:n2p\t9_c0idUpZhb\r63CYfDg@~>
Sc8]JnR_cep&>#BmUcI0l2Lg"B&VAAJ,~>
Sc8]TnX0Bfp&>#lm[4(%l2LgSRHrK)J,~>
Sc8]_n]V!gp&>$Bm`Y[pl2Lh0bk9TfJ,~>
SGrSDnn%mZp&>#Ym:HBsrp0RcF_9L^s*t~>
SGrSlnsKLCp&>$&m?n!nrp0RcURCAus*t~>
SGrT@o#q++p&>$ImE>RilMgq5bk0NeJ,~>
SGrT*o4@uZo`"omlt-9krTsOcJ7dKds*t~>
SGrT?o9fT`o`"p4m$RmirTsOcWgVu#s*t~>
SGrTSo?73eo`"pOm*#Lfrp9Xde]dU9s*t~>
SGrWaB_5m:cLh,:_Wte7Pkj_H!fL[9fDg@~>
SGrWdS+N*KhXpgJf'A_)\,5Rm!jS0MfDg@~>
SGrWfc1K3[n+?V[lg)aqg\pO>!nb`cfDg@~>
ZMt-c\AZbLkk4KG!.a]R!9EeP!TIbXAc[b\mf*?SB#E7#J,~>
ZMt-nd+I:?nG)PR!35[Z!:BFY!:9!=!O2@errTa!f@U%Q~>
ZMt.$kNhU.p\aR]!7g_c!;?'b!;5X$!SI;;rrV!"ldu/e~>
ZMt"*[qGYO"DDn-Wr;\l!SMVfAcUWXrrAPRAcRbWrrSm+\_$k3~>
Z2XjNRf/WWS"m%(rV-<mk+hR:!9`tR!5.Tb!4)%m!l:;OfDg@~>
Z2Xger6,;gdFI:Vp\t9bdIbW_oCMt^hWi;bf^Ab@i6:E:s*t~>
Yl=aPDYdrGNV!#H!qrF&o4A!DoD\jXC[,L3h!b7EXCeWes*t~>
Yl=a_TDFrVZhO=r!VsV'R/kt4rrM_^lBqY9n,EI1RE=(\J,~>
Yl=anchbidg&(XG!W:pIbQ.&%rrMr@lHB8"n,EILbiICUJ,~>
YQ"XcI/7FUHK4o&!VLs5AcT1.rrB:gAcS1drrT]BUY#Nr~>
YQ"XlW;;n_VX=9\!Vi\cR/kM&rrC7-R/jedrrUN7_Ung<~>
YQ"Xte,%8he+W\=!W:I<bQ-errrD0GbQ-GerrVB-i7J!Z~>
Y5\OtQhk:pC;p)M!Uk:)AcS@lrrMtAlXg01k4&BP_e,:fs*t~>
Y5\P!\b_]pSD!f>!VN;\R/jqkrrN"nlBqY@nG`RARCh)NJ,~>
Y5\P$h"o4qc0Y?-!W(79bQ-MjrrN)HlHB8&nG`RUbh^nNJ,~>
XoAG#Wqp</B<_C5rrD!KAcRSUrrC%'AcS[srrUJXNn=;]~>
XoAG$a8),(bPqG>!:06E!3bqm!86Y*!5n=+!oB?PfDg@~>
XoAG$j8$n!jno&Xp%-B-fCAk@m-;dpiUHjKn''J:s*t~>
X8`4@C\hWDQ1t4V!,V:>!-%K.!WIf=AcZ`?nc&[DAq\e9J,~>
X8`4RSGJWS\GH.'!1ibM!2/l^!WK4eR/rlQnc&[QRB>*@J,~>
X8`4ecMG`ch#.*M!7(5\!7107!7pJ[!RCT4rrVc8f%9qP~>
WrE+VG5>eOJ*Hq3!-n*I!:KCW!S_8QAcT^<rrV7nH.W(H~>
WrE+aU\^AZWq$&f!2]:T!;#a\!9`X8!8$c@!puDQfDg@~>
WrE+ldJD&feG0"B!7LJ_!;Z0b!;#L"!:01T!qsjdfDg@~>
WW*"jNV[5fD9i.\!/:#V!6Oa1!2Jjl!0HaN!q9f>fDg@~>
WW*"nZhg'jT&9PI!3Pj\!8I#C!5[uh!4D@s!qhtRfDg@~>
WW*"rg%rnncL:c4!7pbc!:B:U!9!1e!8?uC!rC-efDg@~>
W;cnsW;:*/B<D15On3/bVXXTdp3,e7!GV5trr`.1BDgE^J,~>
W;cns`VGo(ao;=Ko9fTrnG`ObU[4BLS+uRS"8nRTrRh.#~>
W;cntiq^e#jT#86o?73nnG`OedHo'Xc2@/4"9-Ngrn.7$~>
VZ-\6C&2ECRJ<?EAcRGOrrC4-AcTmArrR%Lo%<tm~>
VZ-\JS,/NS]DK>6R/j>WrrCg>R/kt2rrSaZp=TCq~>
VZ-\_c2,Wch>Q4%bQ-2^rrDHPbQ.#"rrUKiqq1q!~>
V>gSGE;F/IL7%RE!GM/qrrN+Zlt-6bnc&Z8B'@nIJ,~>
V>gSVT_b&WY.O:n!LiiQrrBClR/jkhrrT$bn(@Yj~>
V>gSdchbidfA6&B!R:Q2rrCa=bQ-JhrrUWmpXoLr~>
V#LJ`L$E7Mc0tZ5ltu-%!GhK$rrRgbh:VaX~>
V#LJfXm2;ShXCIFo:>9:!M0,YrrT<jkh,oc~>
V#LJkf':HZmdL/Vq9JBO!RCZ7rrUcqo[s1o~>
U]1AhPNuf\VXFHa[d7T+d.72<Nb6bms*t~>
U]1Aj\*KF^_s[O)cg7&"ht$dK[$fn*s*t~>
U]1Amg[!&`iU6^GkNpCmn+-J[g!&s<s*t~>
UAk;o\7b2@!.=57!WJPTAcSCmrrSX$aOpNC~>
U&P/>RdHLCVsXKa]Bu!d^@M:*]:%C*s*t~>
U&P,Um*#IYmJd1BmE>Reo)AdIbjF'_J,~>
T`5&8C[G^6mI'uTpO;OB!HJ&/rrT!.^=`I9~>
T`5&ISaDgFoBuVZq5NeM!MKD_rrU*+e(F\N~>
T`5&[cL&gUq<n7`r7(/Y!RUi;rrV0'l.H#d~>
TDnrQHL>AF`9mR*luMN+!7^W?!jH:Bf`-I~>
TDnrZVs]rQfBrS=ntGK>!9<\N!m@"Uf`-I~>
TDnrce*bE[lg=]Qq9\QR!:f[\!p.Yff`-I~>
T)Si`NpgQ[S*^.Uf4aVb!2T5d!kW'Cf`-I~>
T)Sid[-sC_^$Pb"jI>V+!5e@-!n*LUf`-I~>
T)Sigg$d,bhX(7Co$-XI!9*PL!pIkff`-I~>
Sc8`fU$uXpFoLb-!4M?.!H\,0rrU2PT%O'n~>
Sc8`h_=3imU[.p[cL7/%UAOT_!nj!Uf`-I~>
Sc8`ii:+qjdHgf4kO6Uqd/EV:!pn.gf`-I~>
S,WN'B^o[7k3W*Krg<.d!5A+*!ni:,f`-I~>
S,WN<S+2mHmd'lQ]C2-feF`bBk,lYUs*t~>
S,WNRc10!XpZqhZh=&Pfl1FuWo%)gQs*t~>
Rf<E?EUm]A^?be"pk&!I!I+F_s*t~>
Rf<EMU%4TOe*I#7qlB4S!N#b:s*t~>
Rf<EZd.5B\l0J?MrRLD]!Rgths*t~>
RK!<VL\#*XPj88LmW7l0!5HYUJ,~>
RK!<[YOe.^\Ea(po:k`B!7f3kJ,~>
RK!<afCR2dgZne>q9\WT!:%]+J,~>
R/[3^Re11mE;f)%!S1rSAc[5Vb5Zt~>
R/[3a]_%TmTDe'T!T]a?R/s5ab5Zt~>
R/[3ch=Snlci350!V+G)bQ62lb5Zt~>
QN%!&C%Z'<^Zkau^[Ph8`6/+1~>
QN%!:S+W0Le`m)6eF8k+f?4,D~>
QN%!Oc1T9\lKS<KlL<!tlcT6X~>
Q2^m7E;!lEG5:D&!1iXl!Iasjs*t~>
Q2^mET_=cSU\j<U!5@uk!3+-@J,~>
Q2^mTch>Q`dJ`>0!8d7i!7]0kJ,~>
PlCdKJG*RT[H[\kk3us_m`YW\~>
PlCdSWqMh\cKY?/mdQVEoZR8b~>
PlCdZeb72ek3;mGp[HB,q9/eg~>
PQ([[TD)puC[C?d!;>no!85QqJ,~>
PQ([]^\=,sSb).H!;Z,P!9ME(J,~>
PQ([^htP=qcM?c*!;u?1!:n>5J,~>
OoGI!B_Z0>Rd'hPD"2*;`6812~>
OoGI5S+rBO]]oFrSai*Jf?=2E~>
OoGIJc1oK_h<Fq>cLK*Ylc]<Y~>
OT,@/DY[lFB@6#E!.+0I!3aTGJ,~>
OT,@>TD4fSiTgFCVt$/Tb00g8~>
OT,@NchP]anEU#Re+(W^jNIRR~>
O8f7DIJIIUET6<a!/^5X!0k\,J,~>
O8f7LWVMq_T^1qD!3u'^!4U/OJ,~>
O8f7TeG7;hd.Q`)!8-hc!8G]sJ,~>
NrK.TR/(=qBX7X)rrAJVAc\P$c2W:~>
NrK.V]D7irS':m!rrB\#R/t)$c2W:~>
NrK.Yh>,7qc/n<l!8[.g!T3n$s*t~>
NW0(Z\7bVL!L36ErrB"dAc[qbcMrC~>
N;iq)Re`?P\G5Ll!6+Dp!OMUIs*t~>
N;in@pricnqsOIaipY(lg&0.qJ,~>
MuNh&D>@cEI,aVp!4VB.!J9^bs*t~>
MuNh7T)"cTW9j!Q!71)$!Nbn=s*t~>
MuNhGcM>Zbe+N20!9`do!S."ls*t~>
MZ3_AJ,*[XBXn'3rrC+,AcZo(d/SU~>
MZ3_HWqi%`S'UU(!86b-!MJQ$s*t~>
MZ3_PeG7;hc0+Tr!:9*s!RUDas*t~>
M>mVNQhY.nQ1XYI!7pLK!GK6qs*t~>
M>mVQ\bMQn\G5Xp!9<F6!LqTds*t~>
M>mVSh"](oh#$[B!:fF"!R9oWs*t~>
M#RMSXS?B.IH0r!!9EHX!GB@!s*t~>
M#RMTaS;/(W9j-U!:B'>!8,a"J,~>
M#RMTj7ph!eFrM6!;>^%!:/)5J,~>
LAq:sD#%ZDCVo`D!VC$jAcZc7e,Op~>
LAq;/Sb\ZSSC[?4!;GcH!M8i1s*t~>
LAq;AcM>ZbcKk-&!;l'*!RCJhs*t~>
L&V2;J,!UVQ1ahM!TJh!AcS1Hs*t~>
L&V2CWVDk^\G5as!UHoSR/jhIs*t~>
L&V2JeG.5gh#-jF!VP%0bQ-GIs*t~>
K`;)IQ2"qlGhr&m!r]cKlt-7QeGk%~>
K`;)K\bMQnV<R[Q!r^T>m$Rk:eGk%~>
K`;)Nh"](ode*54!rhH0m*#J$eGk%~>
KDtuNWVC'+CVo`D!U,L0AcRk@s*t~>
KDtuN`V>i%S_*N6!V!G_R/jSCs*t~>
KDtuOiqU^ucKk-&!Vb:7bQ->Gs*t~>
Jc>bkC\VKBSbVmX!rg5`mUcIPec1.~>
Jc>c(SG8KQ^&%C$!SO79R/l@!s*t~>
Jc>c;cM5TahYm*H!US5%bQ.4as*t~>
Jc>fOj*LK4!I3GmrrW)1DX_6<Lt2NU~>
Jc>fOmAK`I!N#&QrrW/JTCA6KYgrc(~>
Jc>fOp=&f\!RgW4rrW2acg]-Yf@BnO~>
JcGcM!V)'BAccb^r:L!jm$_SWAcUK7s*t~>
JcGcM!VWenR0&r.rUg*jo=XR\!9Mf3J,~>
JcGcM!W(IDbQ?)Srq-3kq;(Pa!:n_@J,~>
JcG`L!W/_fAcd;!rq-3kgkPB3!0#M/J,~>
JcG`L!WBq1R0';?rq-3kkH=BD!4(2UJ,~>
JcG`L!WM'PbQ62ZoD\j_fCI,cg"-1R~>
JcGZJ!Qo6QAcd7prUg*jd<bCr!86!(J,~>
JcGZJ!Sa1>R0'59rq-3ki2?17!9Vo5J,~>
JcGZJ!U\2,bQ?5Yrq-3knC.!Q!:nbAJ,~>
JcGWI!SqnlAd!dZNdg0crrVu"C\;9>P1T_a~>
JcGWI!U-<PR09Y,[&NNgrrW)@Sb8BN\(CY1~>
JcGWI!VFe5bQQMSg!ocjrrW/\cLoB]gXlIU~>
JcGTH!V;?CAcSOtrrV\bB_H$=L>U\aJ,~>
JcGTH!V`qlR/k%qrrVl1ReE-MY3O^?J,~>
JcGTH!W1RAbQ-SorrW&Tc1]?^fC[brJ,~>
JcGQG!WB.mAcZZ9o`"sNMtU`aB;>1Ts*t~>
JcGQG!WC.4R/riNo`"sXZM'[fR_nmTs*t~>
JcGQG!WM0PbQ5ubo`"sbf_*Ghi;D@0J,~>
JcGKE%_n'cP*q`2USFrnYdh4'oD\mka*./g!I)fDs*t~>
JcGKE%b7qn\%B8e_SXC9b0SE$o)AaEV"U2WV;9r,J,~>
JcGKE%dMd%gYL]Ci8E\Wjlbh#o)AaWdItcbddGojJ,~>
JcFC&!rKWJp1=>`j50fd~>
JcFC&!r^T?p6brdmG@kn~>
JcFC&!rhH1p<3Qip>5h"~>
JcF=$!qW@(pLXJ?W;#6MJ,~>
JcF=$!r'[&pR))P`VJHlJ,~>
JcF=$!rM!%pWN]`ir%a7J,~>
JcF7"!SrP)Acd5#ro3s.~>
JcF7"!U6f]R/s/?iW"E~>
JcF7"!VG";bQ6/[iW"E~>
JcF4!!rg8bp1=A\d/N,+J,~>
JcF0u!SaFDR0'SLroF*0~>
JcF0u!U\>/bQ6>aj8XW~>
JcF-t!rT]Lp1=AP]_U^iJ,~>
JcF-t!r^T?p6buZe,/;-J,~>
JcF-t!rhH1p<3Tel2BcEJ,~>
JcF'r!q`F)p1=AIZLmA\J,~>
JcF'r!r'[&p6buUbkUE%J,~>
JcF'r!rM!%p<3Tbjnn9AJ,~>
JcF!p!ToO;AcchJmcsh&~>
JcF!p!UmJiR0&u!o]lI,~>
JcF!p!Vb=@bQ?)Lq<J!1~>
JcEso!rg;cok"8AVsNdMJ,~>
JcEpn!SaFCR0&qto'HC,~>
JcEpn!U\>.bQ?)Lq<\-3~>
JcEmm!rKWJok"8<Phkd-J,~>
JcEmm!r^T>opGlM\*38[J,~>
JcEmm!rhH1oZR?jo^;a0~>
JcEgk!q2^noO\/]dJi\9J,~>
JcEgk!VO1uR/sSNnGe"~>
JcEgk!W(^FbQ6AcnGe"~>
JcEai!T/_)AcdS)rU^&>~>
JcEai!U?l[R0'GBrU^&>~>
JcEai!VG"8bQ?>]rq$/?~>
JcE^h!rg5^o4A&L]_V7#J,~>
JcE[g!SO4=R0'87qt9u>~>
JcE[g!US5*bQ?5WrUp2@~>
JcEXf!r0'9o4A&FZLmnkJ,~>
JcEXf!rC-2o9fZRbkUr4J,~>
JcEXf!r_6*o?79_jnnfPJ,~>
JcERd!TT.0AccqOkkY7/~>
JcERd!UR/`R0'&$nG3*7~>
JcERd!VY4;bQ?,Np\Fi>~>
JcELb!S2bjAcd\'qY^AD~>
JcELb!T^9NR0'MAqu$JE~>
JcELb!V+\0bQ?A]rVZ\G~>
JcEIa!rT]KnR_iDXm>udJ,~>
JcEIa!r^T?nX0HQan#H2J,~>
JcEIa!rhH1n]V']jS8`SJ,~>
JcEC_!UZ?FAclb8f`$C~>
JcEC_!V<qmR0/qjjo9i~>
JcEC_!VtR@bQH,Go)F4~>
JcE=]!T8h'AcUD4~>
JcE=]!UHuYR/l8t~>
JcE=]!VP+6bQ.0`~>
JcE:\!r]rUnR_cgJ,~>
JcE:\!rgcEnX0BgJ,~>
JcE:\!rhK3n]V!hJ,~>
JcE4Z!r0':oO\,ek^W~>
JcE4Z!rL33oU,`hn:1~>
JcE4Z!r_6+oZR?jpOE~>
JcE.X!U6$HAcmA,s8RT~>
JcE.X!V*erR00AFs8RT~>
JcE.X!VkLFbQH>`s8RT~>
JcE(V!S;l!Acck_qu6VG~>
JcE(V!T^<YR0&u/rVlhI~>
JcE(V!V4e<bQ?,Trr2qJ~>
JcE%U#Q25QAnG\In,339~>
JcE%U!r^T?rg<f$p&+i?~>
JcE%U!rhH1rlbE#qY^AD~>
JcDtS"7Me3fD>Mt~>
JcDtS"8':-jSJn,~>
JcDtS"8^m)o(rB:~>
%%EndData
showpage
%%Trailer
end
%%EOF
